…
#### Step 2. Generate a list of peaks located within a ±100kb window around each gene.
```R
gene_name <- "Rag2"

linked_peaks <- link_peaks_to_tss(
  gtf_file = "D:\\PBMC\\mm10\\gencode.vM25.annotation.gtf",
  peaks_gr = peaks_gr,
  gene_list = gene_name, 
  tss_window = 100000 # ±100kb
)

linked_peaks
# A tibble: 83 × 7
   peak                     gene_id            gene_name gene_type      transcript_id      peak_id min_distance
   <chr>                    <chr>              <chr>     <chr>          <chr>                <int>        <dbl>
 1 chr2:101525902-101525952 ENSMUSG00000032864 Rag2      protein_coding ENSMUST00000044031  278345       98790.
 2 chr2:101533903-101533953 ENSMUSG00000032864 Rag2      protein_coding ENSMUST00000044031  278346       90790.
 3 chr2:101537021-101537071 ENSMUSG00000032864 Rag2      protein_coding ENSMUST00000044031  278347       87672.
 4 chr2:101543845-101543895 ENSMUSG00000032864 Rag2      protein_coding ENSMUST00000044031  278348       80848.
 5 chr2:101545763-101545813 ENSMUSG00000032864 Rag2      protein_coding ENSMUST00000044031  278349       78930.
 6 chr2:101549272-101549322 ENSMUSG00000032864 Rag2      protein_coding ENSMUST00000044031  278350       75420.
 7 chr2:101550344-101550394 ENSMUSG00000032864 Rag2      protein_coding ENSMUST00000044031  278351       74348.
 8 chr2:101551169-101551219 ENSMUSG00000032864 Rag2      protein_coding ENSMUST00000044031  278352       73524.
 9 chr2:101551591-101551641 ENSMUSG00000032864 Rag2      protein_coding ENSMUST00000044031  278353       73102.
10 chr2:101552534-101552584 ENSMUSG00000032864 Rag2      protein_coding ENSMUST00000044031  278354       72158.
# ℹ 73 more rows
# ℹ Use `print(n = ...)` to see more rows
# 
```
…
